,Date,Open,High,Low,Close,Volume,Adj Close
0,2018年7月6日,534,558,534,554,116200,554
1,2018年7月5日,536,560,526,528,175200,528
2,2018年7月4日,536,549,526,542,190500,542
3,2018年7月3日,577,579,536,539,314400,539
4,2018年7月2日,585,586,564,567,206200,567
5,2018年6月29日,591,594,570,590,247000,590
6,2018年6月28日,591,595,584,595,136200,595
7,2018年6月27日,593,596,582,588,89500,588
8,2018年6月26日,575,602,569,592,186400,592
9,2018年6月25日,616,621,587,589,266300,589
10,2018年6月22日,627,631,614,622,85500,622
