,Date,Open,High,Low,Close,Volume,Adj Close
0,2018年7月6日,5097,5126,5013,5035,1408100,5035
1,2018年7月5日,5070,5087,5006,5047,1007000,5047
2,2018年7月4日,5015,5077,4999,5072,1031400,5072
3,2018年7月3日,5159,5162,5030,5069,1215100,5069
4,2018年7月2日,5319,5331,5165,5172,891200,5172
5,2018年6月29日,5348,5399,5301,5364,943300,5364
6,2018年6月28日,5466,5500,5325,5339,1357100,5339
7,2018年6月27日,5480,5556,5451,5497,790600,5497
8,2018年6月26日,5542,5591,5501,5557,802700,5557
9,2018年6月25日,5555,5559,5473,5527,1144100,5527
10,2018年6月22日,5444,5550,5434,5528,1249600,5528
